<?php

/*********************************************************************
*  Roadsend SiteManager
*  Copyright (c) 2001 Roadsend, Inc.(http://www.roadsend.com)
**********************************************************************
*
* This source file is subject to version 1.0 of the Roadsend Public
* License, that is bundled with this package in the file 
* LICENSE, and is available through the world wide web at 
* http://www.roadsend.com/license/rpl1.txt
*
**********************************************************************
* Author(s): weyrick
*
*/

/**
 * a skeleton module. extends base SM_module class.
 *
 */
class inVarProp extends SM_module {
     
     /**
      * configure the module. run before moduleThink
      */
    function moduleConfig() {

        $this->addInVar('ok',0,'int');

    }

     /**
      * this function contains the core functionality entry point for the module.
      */
    function moduleThink() {
    
        global $PHP_SELF;

        $this->saybr("<CENTER><B>MODULE INVAR PROPAGATION TEST</B></CENTER><BR><BR>");

        $this->saybr("the variables moduleName SM_menuID are propagated inVars.<br>");
        $this->saybr("clicking the links below should reload this page with those variables (in addition to session variables) intact
                     even though they were not specified in link generated by this module.<br>");

        $this->saybr($this->hLink($PHP_SELF.'?ok=1','click to test'));

        if ($this->getVar('ok') == 1) {
            $this->saybr('<br>the propagation test worked correctly');
        }

    }
    
}


?>
